<svg xmlns:xlink="http://www.w3.org/1999/xlink"
 xmlns="http://www.w3.org/2000/svg"
 width="100%" height="100%" viewBox="0 0 842 596"
 onload="getSVGDoc(evt)" 
 onzoom="ZoomControl()" >
<script language="text/ecmascript"><![CDATA[
 var svgdoc,svgroot, oldStyle;
 function getSVGDoc(load_evt)
 {
   svgdoc=load_evt.target.ownerDocument;
   svgroot=svgdoc.documentElement;
 }
 function ShowTooltip(e, txt)
 {
   var ttrelem,tttelem,posx,posy,curtrans,ctx,cty;
   ttrelem=svgdoc.getElementById("ttr");
   tttelem=svgdoc.getElementById("ttt");
   tttelem.childNodes.item(0).data=txt;
   oldStyle = e.target.getAttribute("style")
   curtrans=svgroot.currentTranslate;
   ctx=curtrans.x;
   cty=curtrans.y;
   bbox = svgroot.getAttribute("viewBox");
   var bbfld = bbox.split(/\s+/);
   vbw = bbfld[2];
   vbh = bbfld[3];
   posx = e.clientX / window.innerWidth * vbw
   posy = e.clientY / window.innerHeight * vbh
   ttrelem.setAttribute("x",posx-ctx);
   ttrelem.setAttribute("y",posy-cty-20);
   tttelem.setAttribute("x",posx-ctx+5);
   tttelem.setAttribute("y",posy-cty-8);
   ttrelem.setAttribute("width",tttelem.getComputedTextLength()+3);
   tttelem.setAttribute("style","fill: blue; font-size: 11px; visibility: visible");
   ttrelem.setAttribute("style","fill: yellow; stroke: #000000; stroke-width: 0.5px; visibility: visible");
   e.target.setAttribute("style", oldStyle+" stroke-width:3px;" )
 }
 function HideTooltip(e)
 {
   var ttrelem,ttrelem;
   ttrelem=svgdoc.getElementById("ttr");
   tttelem=svgdoc.getElementById("ttt");
   ttrelem.setAttribute("style","visibility: hidden");
   tttelem.setAttribute("style","visibility: hidden");
   e.target.setAttribute("style", oldStyle)
 }
 function ZoomControl()
 {
   var curzoom;
   curzoom=svgroot.currentScale;
   svgdoc.getElementById("tooltip").setAttribute("transform","scale("+1/curzoom+")");
 }
]]></script>
<defs>
 <clipPath id="chartrect">
<rect  x="78.0"  y="24.0"  width="534.0"  height="520.0"  />
 </clipPath>
</defs>
 <text x="345" y="16" style="font-size:11.84px; text-anchor:middle;">Population</text>
<rect x="78.0"  y="24.0"  width="534.0"  height="520.0"  style="stroke:black; fill:none"/>
<text x="345" y="587"  style="font-size:14.06px; text-anchor:middle"></text><text x="78.0" y="562"  style="font-size:11.84px; text-anchor:middle">1950</text><line  x1="78.0" y1="544.0" x2="78.0" y2="547.0" style="stroke:black; stroke-width:1px;" />
<text x="167.0" y="562"  style="font-size:11.84px; text-anchor:middle">1975</text><line  x1="167.0" y1="544.0" x2="167.0" y2="24.0" style="stroke:gray; stroke-width:0.5px;" />
<line  x1="167.0" y1="544.0" x2="167.0" y2="547.0" style="stroke:black; stroke-width:1px;" />
<text x="256.0" y="562"  style="font-size:11.84px; text-anchor:middle">2000</text><line  x1="256.0" y1="544.0" x2="256.0" y2="24.0" style="stroke:gray; stroke-width:0.5px;" />
<line  x1="256.0" y1="544.0" x2="256.0" y2="547.0" style="stroke:black; stroke-width:1px;" />
<text x="345.0" y="562"  style="font-size:11.84px; text-anchor:middle">2025</text><line  x1="345.0" y1="544.0" x2="345.0" y2="24.0" style="stroke:gray; stroke-width:0.5px;" />
<line  x1="345.0" y1="544.0" x2="345.0" y2="547.0" style="stroke:black; stroke-width:1px;" />
<text x="434.0" y="562"  style="font-size:11.84px; text-anchor:middle">2050</text><line  x1="434.0" y1="544.0" x2="434.0" y2="24.0" style="stroke:gray; stroke-width:0.5px;" />
<line  x1="434.0" y1="544.0" x2="434.0" y2="547.0" style="stroke:black; stroke-width:1px;" />
<text x="523.0" y="562"  style="font-size:11.84px; text-anchor:middle">2075</text><line  x1="523.0" y1="544.0" x2="523.0" y2="24.0" style="stroke:gray; stroke-width:0.5px;" />
<line  x1="523.0" y1="544.0" x2="523.0" y2="547.0" style="stroke:black; stroke-width:1px;" />
<text x="612.0" y="562"  style="font-size:11.84px; text-anchor:middle">2100</text><line  x1="612.0" y1="544.0" x2="612.0" y2="547.0" style="stroke:black; stroke-width:1px;" />
<text x="-303" y="21"  transform="rotate(-90)"  style="font-size:11.84px; text-anchor:start">million</text><text x="72" y="549.0"  style="font-size:11.84px; text-anchor:end">0</text><line  x1="78.0" y1="544.0" x2="75.0" y2="544.0" style="stroke:black; stroke-width:1px;" />
<text x="72" y="474.7142857142857"  style="font-size:11.84px; text-anchor:end">2000</text><line  x1="78.0" y1="469.7142857142857" x2="612.0" y2="469.7142857142857" style="stroke:gray; stroke-width:0.5px;" />
<line  x1="78.0" y1="469.7142857142857" x2="75.0" y2="469.7142857142857" style="stroke:black; stroke-width:1px;" />
<text x="72" y="400.42857142857144"  style="font-size:11.84px; text-anchor:end">4000</text><line  x1="78.0" y1="395.42857142857144" x2="612.0" y2="395.42857142857144" style="stroke:gray; stroke-width:0.5px;" />
<line  x1="78.0" y1="395.42857142857144" x2="75.0" y2="395.42857142857144" style="stroke:black; stroke-width:1px;" />
<text x="72" y="326.14285714285717"  style="font-size:11.84px; text-anchor:end">6000</text><line  x1="78.0" y1="321.14285714285717" x2="612.0" y2="321.14285714285717" style="stroke:gray; stroke-width:0.5px;" />
<line  x1="78.0" y1="321.14285714285717" x2="75.0" y2="321.14285714285717" style="stroke:black; stroke-width:1px;" />
<text x="72" y="251.85714285714286"  style="font-size:11.84px; text-anchor:end">8000</text><line  x1="78.0" y1="246.85714285714286" x2="612.0" y2="246.85714285714286" style="stroke:gray; stroke-width:0.5px;" />
<line  x1="78.0" y1="246.85714285714286" x2="75.0" y2="246.85714285714286" style="stroke:black; stroke-width:1px;" />
<text x="72" y="177.57142857142858"  style="font-size:11.84px; text-anchor:end">10000</text><line  x1="78.0" y1="172.57142857142858" x2="612.0" y2="172.57142857142858" style="stroke:gray; stroke-width:0.5px;" />
<line  x1="78.0" y1="172.57142857142858" x2="75.0" y2="172.57142857142858" style="stroke:black; stroke-width:1px;" />
<text x="72" y="103.28571428571429"  style="font-size:11.84px; text-anchor:end">12000</text><line  x1="78.0" y1="98.28571428571429" x2="612.0" y2="98.28571428571429" style="stroke:gray; stroke-width:0.5px;" />
<line  x1="78.0" y1="98.28571428571429" x2="75.0" y2="98.28571428571429" style="stroke:black; stroke-width:1px;" />
<text x="72" y="29.0"  style="font-size:11.84px; text-anchor:end">14000</text><line  x1="78.0" y1="24.0" x2="75.0" y2="24.0" style="stroke:black; stroke-width:1px;" />
 <path d=" M78.0,449.9457711971429 L81.56,448.13577
 L85.12,446.37192
 L88.68,444.6144
 L92.24,442.833
 L95.8,441.00726
 L99.36,439.12665
 L102.92,437.19043
 L106.48,435.20602
 L110.04,433.1867
 L113.6,431.14468
 L117.16,429.08337
 L120.72,426.99103
 L124.28,424.83783
 L127.84,422.58386
 L131.4,420.2026
 L134.96,417.68372
 L138.52,415.04166
 L142.08,412.30582
 L145.64,409.51865
 L149.2,406.71307
 L152.76,403.89536
 L156.32,401.0624
 L159.88,398.22662
 L163.44,395.40018
 L167.0,392.59015
 L170.56,389.80478
 L174.12,387.03934
 L177.68,384.27078
 L181.24,381.4666
 L184.8,378.60257
 L188.36,375.67603
 L191.92,372.6927
 L195.48,369.64783
 L199.04,366.5378
 L202.6,363.36353
 L206.16,360.1209
 L209.72,356.81937
 L213.28,353.4901
 L216.84,350.17465
 L220.4,346.9042
 L223.96,343.69086
 L227.52,340.53107
 L231.08,337.42093
 L234.64,334.35025
 L238.2,331.3111
 L241.76,328.30356
 L245.32,325.33035
 L248.88,322.38846
 L252.44,319.47397
 L256.0,316.58282
 L259.56,313.71417
 L263.12,310.86462
 L266.68,308.02417
 L270.24,305.18042
 L273.8,302.32446
 L277.36,299.45297
 L280.92,296.56775
 L284.48,293.67163
 L288.04,290.76978
 L291.6,287.86697
 " style="stroke:rgb(100,120,120); stroke-width:1.5px; fill:none;"  onmouseover="ShowTooltip(evt,'World - History - World Bank (WDI)')" onmouseout="HideTooltip(evt)" />
 <path d=" M291.6,288.85369140397347 L327.2,264.42114
 L362.8,245.76375
 L398.4,232.74924
 L434.0,226.14397
 L469.6,225.66612
 L505.2,230.49696
 L540.8,239.9803
 L576.4,253.64008
 L612.0,270.5398
 " style="stroke:rgb(150,50,50); stroke-width:1.5px; fill:none;"  onmouseover="ShowTooltip(evt,'World - IIASA-WiC POP - SSP5')" onmouseout="HideTooltip(evt)" />
 <path d=" M291.6,288.85369140397347 L327.2,261.7242
 L362.8,238.24367
 L398.4,219.409
 L434.0,205.26318
 L469.6,196.6852
 L505.2,193.15222
 L540.8,193.19066
 L576.4,195.7833
 L612.0,199.8347
 " style="stroke:rgb(150,50,50); stroke-width:1.5px; fill:none;"  onmouseover="ShowTooltip(evt,'World - IIASA-WiC POP - SSP4')" onmouseout="HideTooltip(evt)" />
 <path d=" M291.6,288.85369140397347 L327.2,258.49054
 L362.8,228.15706
 L398.4,200.52113
 L434.0,174.46257
 L469.6,151.44803
 L505.2,131.16968
 L540.8,111.88559
 L576.4,93.17685
 L612.0,75.07391
 " style="stroke:rgb(150,50,50); stroke-width:1.5px; fill:none;"  onmouseover="ShowTooltip(evt,'World - IIASA-WiC POP - SSP3')" onmouseout="HideTooltip(evt)" />
 <path d=" M291.6,288.85369140397347 L327.2,261.2415
 L362.8,237.09917
 L398.4,217.66516
 L434.0,203.61427
 L469.6,195.78967
 L505.2,193.38599
 L540.8,195.48357
 L576.4,201.38875
 L612.0,209.78946
 " style="stroke:rgb(150,50,50); stroke-width:1.5px; fill:none;"  onmouseover="ShowTooltip(evt,'World - IIASA-WiC POP - SSP2')" onmouseout="HideTooltip(evt)" />
 <path d=" M291.6,288.85369140397347 L327.2,264.7416
 L362.8,246.86035
 L398.4,234.89491
 L434.0,229.79367
 L469.6,231.35303
 L505.2,238.63217
 L540.8,250.99753
 L576.4,267.9719
 L612.0,288.45987
 " style="stroke:rgb(150,50,50); stroke-width:1.5px; fill:none;"  onmouseover="ShowTooltip(evt,'World - IIASA-WiC POP - SSP1')" onmouseout="HideTooltip(evt)" />
<rect x="620"  y="24"  width="214"  height="88"  style="stroke:black; fill:white"/>
<line x1="624"  y1="36"  x2="644"  y2="36"  style="stroke:rgb(150,50,50); stroke-width:2px;"/>
<text x="648" y="40"  style="font-size:11.84px; text-anchor:start">World - IIASA-WiC POP - SSP1</text>
<line x1="624"  y1="52"  x2="644"  y2="52"  style="stroke:rgb(150,50,50); stroke-width:2px;"/>
<text x="648" y="56"  style="font-size:11.84px; text-anchor:start">World - IIASA-WiC POP - SSP2</text>
<line x1="624"  y1="68"  x2="644"  y2="68"  style="stroke:rgb(150,50,50); stroke-width:2px;"/>
<text x="648" y="72"  style="font-size:11.84px; text-anchor:start">World - IIASA-WiC POP - SSP3</text>
<line x1="624"  y1="84"  x2="644"  y2="84"  style="stroke:rgb(150,50,50); stroke-width:2px;"/>
<text x="648" y="88"  style="font-size:11.84px; text-anchor:start">World - IIASA-WiC POP - SSP4</text>
<line x1="624"  y1="100"  x2="644"  y2="100"  style="stroke:rgb(150,50,50); stroke-width:2px;"/>
<text x="648" y="104"  style="font-size:11.84px; text-anchor:start">World - IIASA-WiC POP - SSP5</text>
<text x="8" y="591" style="font-size:11.84px; text-anchor:start;">(c) SSP Public Database (Version 1.1)</text>
<text x="834" y="591" style="font-size:11.84px; text-anchor:end;">generated: 2017-05-05 09:47:52</text>

<g id="tooltip">
 <rect id="ttr" x="0" y="0" rx="5" ry="5"  width="100" height="16"  style="visibility: hidden;"/>
 <text id="ttt" x="0" y="0"  style="visibility: hidden">dyn. Text</text>
</g>
</svg>
