TEU,No of ships,Average dwt,Net pay-load capacity,Utilization when loaded,Distance per voyage,Speed,Days per voyage,Cargo voyages,Ballast voyages,dwt utilization per year,"Days at sea, service speed",Engine size [kW],Gram fuel per kWh,Fuel per ship in ton,Cargo in million ton,Billion ton miles,Fuel in million ton,Gram CO2 per ton km
8500,206,105995,85000,0.7,11000,25,31,11,0,0.56,251,67369,190,64281,135,1483,13.2,15
6500,175,80084,64000,0.7,11000,25,31,11,0,0.56,250,60277,190,57088,86,949,10,18
4000,1068,55297,44000,0.7,7000,23,24,14,0,0.56,226,37208,190,32152,461,3224,34.3,18
2300,789,33243,27000,0.7,2500,21,10,32,0,0.57,215,20000,190,16388,477,1193,12.9,18
1400,832,20512,16400,0.7,1000,19,8,45,0,0.56,174,12662,190,7988,430,430,6.6,26
700,1161,10022,8000,0.7,700,17,7,48,0,0.56,152,6794,210,4245,312,218,4.9,38
200,167,3080,2300,0.7,300,13,5,55,0,0.52,107,2319,230,1228,15,4,0.2,79
,,,,,,,,,,,,,,,,,,
TEU,Count,DWT_avg,Utilisation,Voyage_km,Voyage_days,Voyage_count,Cruise_days,Engine_kW,Cruise_h,Manoeuvre_h,Hotel_h,,,,,,,
8500,206,105995,0.7,20372,31,11,251,67369,6024,2160,582,,,,,,,
6500,175,80084,0.7,20372,31,11,250,60277,6000,2184,582,,,,,,,
4000,1068,55297,0.7,12964,24,14,226,37208,5424,2640,702,,,,,,,
2300,789,33243,0.7,4630,10,32,215,20000,5160,2520,1086,,,,,,,
1400,832,20512,0.7,1852,8,45,174,12662,4176,4464,126,,,,,,,
700,1161,10022,0.7,1296.4,7,48,152,6794,3648,4416,702,,,,,,,
200,167,3080,0.7,555.6,5,55,107,2319,2568,4032,2166,,,,,,,
